Assignment 2
…
raw_df %>%
        select(Date, MCP)%>%
        #first we group our data according to the hours
        group_by(Hour = lubridate::hour(Date))%>%
        #then we calculate average value of MCP hour each our
        summarise(MinMCP_Hour = min(MCP),
                  MaxMCP_Hour = max(MCP))%>%
        #ungproup
        ungroup()%>%
        #to provide sorting of the data hourly minimum MCP and hourly maximum MCP from smallest to largest 
        arrange(MinMCP_Hour,MaxMCP_Hour)%>%
        print(n=3)

## # A tibble: 24 x 3
##    Hour MinMCP_Hour MaxMCP_Hour
##   <int>       <dbl>       <dbl>
## 1     6        140.        293 
## 2     9        174.        328.
## 3     7        194.        318.
## # ... with 21 more rows
…
According to the result of the minimum and maximum of the daily MCP analysis, Minimum value is observed in the 13th day of July, and maximum value of the minimum daily MCP is observed in the 3th day of the July. In addition to the minimum MCPs, minimum and maximum of the maximum daily MCP value are observed in 10th July and 6th, 24th, 27th and 29th July, respectively.

2.1.6. Daily MCP

DA_MCP : Daily Average MCP value

raw_df %>%
  group_by(Day=lubridate::day(Date))%>%
  summarise(DA_MCP = mean(MCP))

## # A tibble: 31 x 2
##      Day DA_MCP
##    <int>  <dbl>
##  1     1   320.
##  2     2   298.
##  3     3   317.
##  4     4   306.
##  5     5   258.
##  6     6   290.
##  7     7   307.
##  8     8   304.
##  9     9   288.
## 10    10   282.
## # ... with 21 more rows
…
#knitr::kable(EG, format="markdown")

2.2. SMP

2.2.1 Hourly change of the SMP

raw_df%>%
  group_by(Day=lubridate::day(Date))%>%
  summarise(Average_SMP = mean(SMP),
            Min_SMP = min(SMP),
            Max_SMP = max(SMP))

## # A tibble: 31 x 4
##      Day Average_SMP Min_SMP Max_SMP
##    <int>       <dbl>   <dbl>   <dbl>
##  1     1        268.    114.    377.
##  2     2        357.    229.    404.
##  3     3        373.    335.    460 
##  4     4        321.    235     365 
##  5     5        198.    120     266.
##  6     6        307.    156.    367.
##  7     7        298.    179     353.
##  8     8        191.    151.    235.
##  9     9        189.    124.    207.
## 10    10        292.    177.    344.
## # ... with 21 more rows
…
3.3. Daily difference of negative and positive inbalance price

EG <- raw_df %>%
        select(Date, PositiveIP, NegativeIP)%>%
        group_by(Day = lubridate::day(Date), Hour = lubridate::hour(Date))%>%
        select(Day,Hour, PositiveIP, NegativeIP)%>%
        transmute(Day,Hour,PositiveIP, NegativeIP, difference=NegativeIP-PositiveIP)%>%
        ungroup()%>%
        arrange(desc(difference)) %>%
        print(n=10)

## # A tibble: 744 x 5
##      Day  Hour PositiveIP NegativeIP difference
##    <int> <int>      <dbl>      <dbl>      <dbl>
##  1    31    12        9.7       241.       231.
##  2    31    11        9.7       227.       217.
##  3    31    10        9.7       202.       192.
##  4     1     9      176.        338.       162.
##  5     1     8      176.        335.       159.
##  6     3    14      320.        474.       154.
##  7     3    15      321.        474.       153.
##  8     8     0      174.        322.       148.
##  9     7    23      174.        320.       146.
## 10     8     1      175.        320.       146.
## # ... with 734 more rows
…
Pie chart shows that, the percentage of the deficit is higher than the percentage of the surplus. That is, the energy demand is higher than the predicted energy demand.

4.2. Number of deficit according to the days

raw_df %>%
  group_by(Hours = lubridate::hour(Date))%>%
  transmute(EnergyUsage = ifelse(SMPDirection == "?Energy Surplus", "Surplus", "Deficit")) %>%
  group_by(EnergyUsage, Hours) %>%
  filter(EnergyUsage=="Deficit") %>%
  summarise(EnegyUsageNumber = n())%>%
  print(n=10)

## # A tibble: 24 x 3
## # Groups:   EnergyUsage [1]
##    EnergyUsage Hours EnegyUsageNumber
##    <chr>       <int>            <int>
##  1 Deficit         0               23
##  2 Deficit         1               23
##  3 Deficit         2               24
##  4 Deficit         3               22
##  5 Deficit         4               21
##  6 Deficit         5               21
##  7 Deficit         6               17
##  8 Deficit         7               21
##  9 Deficit         8               18
## 10 Deficit         9               22
## # ... with 14 more rows
…
This bar chart shows the hourly number of deficit energy usage. This result shows that the more deficit energy usage observed in the 6 pm.In other words, this graph also shows the energy usage.In toher words, this data show that the eighth and ninth days have no deficit.

4.4. Classification of the energy surplus, energy deficit and balance

When we use the equality to calculate SMP direction, we can obtain surplus, deficit, and balance

EG <- raw_df %>% 
        group_by(Hour = lubridate::hour(Date))%>% 
        transmute(Hour, Surplus = sum(MCP>SMP), Deficit=sum(MCP<SMP), Balance=sum(MCP==SMP))%>%
        print(n=5)

## # A tibble: 744 x 4
## # Groups:   Hour [24]
##    Hour Surplus Deficit Balance
##   <int>   <int>   <int>   <int>
## 1     0       8      21       2
## 2     1       7      22       2
## 3     2       7      22       2
## 4     3       8      18       5
## 5     4      10      17       4
## # ... with 739 more rows
…
