Diamond Price Estimation
…
set.seed(503)
library(tidyverse)

#Test Data set
diamonds_test <- diamonds %>% 
    mutate(diamond_id = row_number()) %>% 
    group_by(cut, color, clarity) %>% 
    sample_frac(0.2) %>% 
    ungroup()

diamonds_test

## # A tibble: 10,768 x 11
##    carat cut   color clarity depth table price     x     y     z diamond_id
##    <dbl> <ord> <ord> <ord>   <dbl> <dbl> <int> <dbl> <dbl> <dbl>      <int>
##  1 1.7   Fair  D     I1       64.7    56  5617  7.46  7.37  4.8       13745
##  2 0.580 Fair  D     SI2      65.1    58  1156  5.25  5.22  3.41      40562
##  3 1     Fair  D     SI2      65.6    66  3767  6.1   6.01  3.97       5139
##  4 1.05  Fair  D     SI2      65.4    59  3816  6.3   6.24  4.1        5345
##  5 0.7   Fair  D     SI2      64.5    60  2167  5.53  5.47  3.55      49684
##  6 0.9   Fair  D     SI2      64.6    59  3847  6.04  6.01  3.89       5496
##  7 1.01  Fair  D     SI2      64.6    56  3003  6.31  6.24  4.05       1551
##  8 1.1   Fair  D     SI2      64.6    54  4725  6.56  6.49  4.22      10129
##  9 0.62  Fair  D     SI2      64.6    57  1410  5.39  5.33  3.46      43263
## 10 1.5   Fair  D     SI2      68.8    57  7469  6.9   6.86  4.73      18319
## # ... with 10,758 more rows
…
